2012 CFS PUM File Data Dictionary,,,,
Field,Description,Valid Values,Type,Length
SHIPMT_ID,Shipment identifier,0000001-4547661,CHAR,7
ORIG_STATE,FIPS state code of shipment origin,01 - 56,CHAR,2
ORIG_MA,Metro area of shipment origin,See Note (1),CHAR,5
ORIG_CFS_AREA,CFS Area of shipment origin,Concatenation of ORIG_STATE and ORIG_MA,CHAR,8
DEST_STATE,FIPS state code of shipment destination,01-56,CHAR,2
DEST_MA,Metro area of shipment destination,See Note (1),CHAR,5
DEST_CFS_AREA,CFS Area of shipment destination,Concatenation of DEST_STATE and DEST_MA,CHAR,8
NAICS,Industry classification of shipper,See Note (2),CHAR,6
QUARTER,Quarter of 2012 in which the shipment occurred,"1,2,3,4",CHAR,1
SCTG,2-digit SCTG Commodity Code of the shipment,See Note (3),CHAR,5
MODE,Mode of transportation of the shipment,See Note (4),CHAR,2
SHIPMT_VALUE,Value of the shipment in dollars,"$0 - 999,999,999",NUM,8
SHIPMT_WGHT,Weight of the shipment in pounds,"0 - 999,999,999",NUM,8
SHIPMT_DIST_GC,Great circle distance between ship-ment origin and destination (in miles),"0 - 99,999",NUM,8
SHIPMT_DIST_ROUTED,Routed distance between shipment origin and destination (in miles),"0 - 99,999",NUM,8
TEMP_CNTL_YN,Temperature controlled shipment - Yes or No,"Y, N",CHAR,1
EXPORT_YN,Export shipment - Yes or No,"Y, N",CHAR,1
EXPORT_CNTRY,Export final destination,C = Canada,CHAR,1
,,M = Mexico,,
,,O = Other,,
HAZMAT,Hazardous material (HAZMAT) code,"P = Class 3 HAZMAT
       (flammable liquids)",CHAR,1
,,H = Other HAZMAT,,
,,N = Not HAZMAT,,
WGT_FACTOR,Shipment tabulation weighting factor,"0 - 999,999",NUM,8
,,,,
Notes:,,,,
(1) See tab App A1 for the descriptions of valid CFS areas,,,,
(2) See tab App A2 for the descriptions of valid NAICS codes,,,,
(3) See tab App A3 for the descriptions of valid SCTG commodity codes,,,,
(4) See tab App A4 for the descriptions of valid mode codes,,,,
